NAMA                   : GILANG FADIL SYABANI
TEMPAT, TANGGAL LAHIR  : BANDUNG, 13 OKTOBER 2004
SEKOLAH / UNIVERSITAS  : SMK ASSALAAM BANDUNG
ALAMAT SEKOLAH / UNIV. : JALAN SITUTARATE CIBADUYUT
TAHUN MASUK            : 2020
JURUSAN                : REKAYASA PERANGKAT LUNAK
NO. HANDPHONE          : 0859-7431-8113
E-MAIL                 : gilangfadil555@gmail.com
NO. KTP                : -
ALAMAT TEMPAT TINGGAL  : JALAN PASAR SAYATI LAMA